﻿{ "title": "Speak Softly Love"
, "label": ""
, "author": ""
, "score": 

`Godfather - Speak Softly Love

(a
03 | 6'1 76 '16 76 | 45  3 - 
-3 | 6'1 76 '16 76 | 3b3 2 -
-2 | 46   7   - -2 | 4#5 6 -
-v6 | 15  43  54 43 | 3#5 6 - 

-6 | 6#5 5 - 7 | 64  3  - 
-3 | 53  2 - 2 | 4 -#2 3 - a) 

(a) 

-3 | 6'1 76 '16 76 | 45 3 -
-3 | 6'1 76 '16 76 | 3b3 2 -
-2 | 46   7   -  - | '2 '17 -.-'17 6 -
-v6 | 15  43  54 43 | 3#5 6 - 
 
`
}