﻿{ "title": "Unknown-1"
, "label": ""
, "author": ""
, "score": 

`Unknown_1

(a
v6 1 23 3 54 3 2 - 12 3 54 3 2 - v7 -
v6 1 23 3 54 3 2 - 12 3 54 3 2 -3 3
3 3 4 4 2 2 3 -3 1 1 2 2 3 a)

32 1v7 (a) -

(b
65 43 4 56 7 6 54 4 
54 32 3 45 66 5 43 3  b) 
43 21 2 34 5 -4 3 2 3 - 

(b)
43 21 2 34 5 - - -4 3 2 3 - 

32 1v7 (a)

`

}